…
      # New columns indicating just the average review rating
      mutate(all_reviews = gsub(",.*$", "", all_reviews)) %>%
      
      # Change column names
      rename("ID" = id, "Name" = name, "All Reviews" = all_reviews, 
             "Original Price" = original_price, "Discount Price" = discount_price,
             "Discount $" = discount_dollar, "Discount %" = discount_percent, 
             "# All Reviews" = all_review_num)
    steam_data

    ## # A tibble: 40,833 × 8
    ##       ID Name       `All Reviews` `Original Price` `Discount Price` `Discount $`
    ##    <dbl> <chr>      <chr>                    <dbl>            <dbl>        <dbl>
    ##  1     1 DOOM       Very Positive             20.0             15.0         5   
    ##  2     2 PLAYERUNK… Mixed                     30.0             NA          NA   
    ##  3     3 BATTLETECH Mostly Posit…             40.0             NA          NA   
    ##  4     4 DayZ       Mixed                     45.0             NA          NA   
    ##  5     5 EVE Online Mostly Posit…              0               NA          NA   
    ##  6     6 Grand The… NaN                       NA               35.2        NA   
    ##  7     7 Devil May… Very Positive             60.0             70.4       -10.4 
    ##  8     8 Human: Fa… Very Positive             15.0             17.6        -2.59
    ##  9     9 They Are … Very Positive             30.0             NA          NA   
    ## 10    10 Warhammer… Mixed                     50.0             NA          NA   
    ## # ℹ 40,823 more rows
    ## # ℹ 2 more variables: `Discount %` <dbl>, `# All Reviews` <dbl>
…
      # Discount means lower price. Filter out all negative discount values.
      filter(`Discount %` >= 0) %>%
      # Filter out review ratings that do not indicate positive/negative/mixed opinions
      filter(str_detect(`All Reviews`, "Positive|Negative|Mixed")) %>%
      # Order the review ratings from most negative to most positive
      arrange(match(`All Reviews`, c("Very Negative", "Negative", "Mostly egative", 
                                     "Mixed", "Mostly Positive", "Positive",
                                     "Very Positive", "Overwhelmingly Positive")))
    hist_data

    ## # A tibble: 1,434 × 2
    ##    `Discount %` `All Reviews`
    ##           <dbl> <chr>        
    ##  1         75.2 Very Negative
    ##  2         68.9 Very Negative
    ##  3         75.4 Negative     
    ##  4         95.4 Negative     
    ##  5         95.4 Negative     
    ##  6         50.0 Negative     
    ##  7         55.3 Negative     
    ##  8         34.1 Negative     
    ##  9         32.6 Negative     
    ## 10         20.2 Negative     
    ## # ℹ 1,424 more rows
…
